[{
	"id": "N1_S1-N1_J1",
	"tramlane": null,
	"street": {
		"x1": 200,
		"y1": 112,
		"x2": 200,
		"y2": 208,
		"direction": "down"
	},
	"bikelane": {
		"x1": 184,
		"y1": 112,
		"x2": 184,
		"y2": 208,
		"direction": "down"
	},
	"paviment": {
		"x1": 168,
		"y1": 112,
		"x2": 168,
		"y2": 208,
		"direction": "down"
	}
}, {
	"id": "N1_J1-N1_S1",
	"tramlane": null,
	"street": {
		"x1": 216,
		"y1": 208,
		"x2": 216,
		"y2": 112,
		"direction": "up"
	},
	"bikelane": {
		"x1": 232,
		"y1": 208,
		"x2": 232,
		"y2": 112,
		"direction": "up"
	},
	"paviment": {
		"x1": 248,
		"y1": 208,
		"x2": 248,
		"y2": 112,
		"direction": "up"
	}
}, {
	"id": "N2_J2-N1_J1",
	"tramlane": null,
	"street": {
		"x1": 384,
		"y1": 248,
		"x2": 256,
		"y2": 248,
		"direction": "left"
	},
	"bikelane": {
		"x1": 384,
		"y1": 232,
		"x2": 256,
		"y2": 232,
		"direction": "left"
	},
	"paviment": {
		"x1": 384,
		"y1": 216,
		"x2": 256,
		"y2": 216,
		"direction": "left"
	}
}, {
	"id": "N1_J1-N2_J2",
	"tramlane": null,
	"street": {
		"x1": 256,
		"y1": 264,
		"x2": 384,
		"y2": 264,
		"direction": "right"
	},
	"bikelane": {
		"x1": 256,
		"y1": 280,
		"x2": 384,
		"y2": 280,
		"direction": "right"
	},
	"paviment": {
		"x1": 256,
		"y1": 296,
		"x2": 384,
		"y2": 296,
		"direction": "right"
	}
}, {
	"id": "N1_J1-N1_H1",
	"tramlane": null,
	"street": {
		"x1": 200,
		"y1": 304,
		"x2": 200,
		"y2": 400,
		"direction": "down"
	},
	"bikelane": {
		"x1": 184,
		"y1": 304,
		"x2": 184,
		"y2": 400,
		"direction": "down"
	},
	"paviment": {
		"x1": 168,
		"y1": 304,
		"x2": 168,
		"y2": 400,
		"direction": "down"
	}
}, {
	"id": "N1_H1-N1_J1",
	"tramlane": null,
	"street": {
		"x1": 216,
		"y1": 400,
		"x2": 216,
		"y2": 304,
		"direction": "up"
	},
	"bikelane": {
		"x1": 232,
		"y1": 400,
		"x2": 232,
		"y2": 304,
		"direction": "up"
	},
	"paviment": {
		"x1": 248,
		"y1": 400,
		"x2": 248,
		"y2": 304,
		"direction": "up"
	}
}, {
	"id": "N2_H2-N2_J2",
	"tramlane": null,
	"street": {
		"x1": 424,
		"y1": 144,
		"x2": 424,
		"y2": 208,
		"direction": "down"
	},
	"bikelane": {
		"x1": 408,
		"y1": 144,
		"x2": 408,
		"y2": 208,
		"direction": "down"
	},
	"paviment": {
		"x1": 392,
		"y1": 144,
		"x2": 392,
		"y2": 208,
		"direction": "down"
	}
}, {
	"id": "N2_J2-N2_H2",
	"tramlane": null,
	"street": {
		"x1": 440,
		"y1": 208,
		"x2": 440,
		"y2": 144,
		"direction": "up"
	},
	"bikelane": {
		"x1": 456,
		"y1": 208,
		"x2": 456,
		"y2": 144,
		"direction": "up"
	},
	"paviment": {
		"x1": 472,
		"y1": 208,
		"x2": 472,
		"y2": 144,
		"direction": "up"
	}
}, {
	"id": "N2_J2-N2_W1",
	"tramlane": null,
	"street": {
		"x1": 424,
		"y1": 304,
		"x2": 424,
		"y2": 464,
		"direction": "down"
	},
	"bikelane": {
		"x1": 408,
		"y1": 304,
		"x2": 408,
		"y2": 464,
		"direction": "down"
	},
	"paviment": {
		"x1": 392,
		"y1": 304,
		"x2": 392,
		"y2": 464,
		"direction": "down"
	}
}, {
	"id": "N2_W1-N2_J2",
	"tramlane": null,
	"street": {
		"x1": 440,
		"y1": 464,
		"x2": 440,
		"y2": 304,
		"direction": "up"
	},
	"bikelane": {
		"x1": 456,
		"y1": 464,
		"x2": 456,
		"y2": 304,
		"direction": "up"
	},
	"paviment": {
		"x1": 472,
		"y1": 464,
		"x2": 472,
		"y2": 304,
		"direction": "up"
	}
}]